Ver_enviroments/dump.vcd
$date
	Fri Oct 11 20:08:09 2024
$end
$version
	QuestaSim Version 2024.1
$end
$timescale
	1ns
$end

$scope module top_tb $end
$var reg 1 ! clk $end

$scope module dut $end
$var parameter 32 " max_fifo_addr $end
$var reg 3 # wr_ptr [2:0] $end
$var reg 3 $ rd_ptr [2:0] $end
$var reg 4 % count [3:0] $end

$scope begin p1 $end
$upscope $end

$scope begin p2 $end
$upscope $end

$scope begin p3 $end
$upscope $end

$scope begin p4 $end
$upscope $end
$upscope $end
$upscope $end

$scope begin test_case_pkg $end
$var integer 32 & passed_test_count $end
$var integer 32 ' total_test_count $end

$scope task increment_passed $end
$upscope $end

$scope task increment_total $end
$upscope $end

$scope task display_test_results $end
$upscope $end
$upscope $end

$scope begin FIFO_transaction_pkg $end
$upscope $end

$scope begin coverage_pkg $end
$upscope $end

$scope begin test_passed_pkg $end
$var integer 32 ( passed_test_count $end
$var integer 32 ) failed_test_count $end

$scope task increment_passed $end
$upscope $end

$scope task increment_failed $end
$upscope $end

$scope task display_test_results $end
$upscope $end
$upscope $end

$scope begin scb_pkg $end
$upscope $end

$scope begin Fifo_drv_pkg $end
$upscope $end

$scope begin Fifo_mon_pkg $end
$upscope $end

$scope begin env_pkg $end
$upscope $end

$scope begin test_pkg $end
$upscope $end

$scope begin testbench_sv_unit $end
$upscope $end

$scope begin std $end
$upscope $end
$enddefinitions $end
#0
$dumpvars
0!
bx #
bx $
bx %
b11 "
b0 &
b0 '
b0 (
b0 )
$end
#5
1!
#10
0!
b0 #
b0 $
b0 %
#15
1!
#16
b1 (
#20
0!
#25
1!
#30
0!
#35
1!
#36
b10 (
#40
0!
#45
1!
#50
0!
#55
1!
#56
b11 (
#60
0!
#65
1!
b1 #
b1 %
#70
0!
#75
1!
#76
b1 )
#80
0!
#85
1!
b10 #
b1 $
#90
0!
#95
1!
b10 $
b0 %
#96
b10 )
#100
0!
#105
1!
b11 #
b1 %
#110
0!
#115
1!
b100 #
b10 %
#116
b11 )
#120
0!
#125
1!
b101 #
b11 $
#130
0!
#135
1!
#136
b100 )
#140
0!
#145
1!
b110 #
b100 $
#150
0!
#155
1!
#156
b101 )
#160
0!
#165
1!
b111 #
b101 $
#170
0!
#175
1!
b0 #
b110 $
#176
b110 )
#180
0!
#185
1!
b111 $
b1 %
#190
0!
#195
1!
#196
b111 )
#200
0!
#205
1!
#210
0!
#215
1!
b1 #
b0 $
#216
b100 (
#220
0!
#225
1!
b10 #
b1 $
#230
0!
#235
1!
b11 #
b10 %
#236
b1000 )
#240
0!
#245
1!
#250
0!
#255
1!
#256
b1001 )
#260
0!
#265
1!
#270
0!
#275
1!
b100 #
b11 %
#276
b1010 )
#280
0!
#285
1!
#290
0!
#295
1!
b101 #
b100 %
#296
b1011 )
#300
0!
#305
1!
b110 #
b101 %
#310
0!
#315
1!
b111 #
b10 $
#316
b1100 )
#320
0!
#325
1!
b0 #
b11 $
#330
0!
#335
1!
#336
b1101 )
#340
0!
#345
1!
b1 #
b100 $
#350
0!
#355
1!
b10 #
b110 %
#356
b1110 )
#360
0!
#365
1!
b11 #
b101 $
#370
0!
#375
1!
b100 #
b111 %
#376
b1111 )
#380
0!
#385
1!
#390
0!
#395
1!
#396
b10000 )
#400
0!
#405
1!
#410
0!
#415
1!
b101 #
b1000 %
#416
b10001 )
#420
0!
#425
1!
#430
0!
#435
1!
#436
b10010 )
#440
0!
#445
1!
#450
0!
#455
1!
#456
b10011 )
#460
0!
#465
1!
b110 $
b111 %
#470
0!
#475
1!
b110 #
b111 $
#476
b10100 )
#480
0!
#485
1!
b111 #
b1000 %
#490
0!
#495
1!
#496
b10101 )
#500
0!
#505
1!
#510
0!
#515
1!
#516
b10110 )
#520
0!
#525
1!
b0 $
#530
0!
#535
1!
#536
b10111 )
#540
0!
#545
1!
#550
0!
#555
1!
#556
b11000 )
#560
0!
#565
1!
b1 $
#570
0!
#575
1!
#576
b11001 )
#580
0!
#585
1!
#590
0!
#595
1!
#596
b11010 )
#600
0!
#605
1!
#610
0!
#615
1!
#616
b11011 )
#620
0!
#625
1!
#630
0!
#635
1!
#636
b11100 )
#640
0!
#645
1!
#650
0!
#655
1!
#656
b11101 )
#660
0!
#665
1!
b10 $
b111 %
#670
0!
#675
1!
#676
b11110 )
#680
0!
#685
1!
b0 #
b1000 %
#690
0!
#695
1!
b11 $
b111 %
#696
b11111 )
#700
0!
#705
1!
#710
0!
#715
1!
#716
b100000 )
#720
0!
#725
1!
b1 #
b1000 %
#730
0!
#735
1!
b100 $
#736
b100001 )
#740
0!
#745
1!
#750
0!
#755
1!
#756
b100010 )
#760
0!
#765
1!
b101 $
#770
0!
#775
1!
#776
b100011 )
#780
0!
#785
1!
#790
0!
#795
1!
b110 $
#796
b100100 )
#800
0!
#805
1!
#810
0!
#815
1!
b111 $
#816
b100101 )
#820
0!
#825
1!
#830
0!
#835
1!
#836
b100110 )
#840
0!
#845
1!
#850
0!
#855
1!
b0 $
#856
b100111 )
#860
0!
#865
1!
b1 $
#870
0!
#875
1!
#876
b101000 )
#880
0!
#885
1!
b10 $
#890
0!
#895
1!
b11 $
b111 %
#896
b101001 )
#900
0!
#905
1!
b10 #
b1000 %
#910
0!
#915
1!
#916
b101010 )
#920
0!
#925
1!
#930
0!
#935
1!
b100 $
#936
b101011 )
#940
0!
#945
1!
#950
0!
#955
1!
#956
b101100 )
#960
0!
#965
1!
#970
0!
#975
1!
#976
b101101 )
#980
0!
#985
1!
#990
0!
#995
1!
b101 $
b111 %
#996
b101110 )
#1000
0!
#1005
1!
b11 #
b110 $
#1010
0!
#1015
1!
b100 #
b1000 %
#1016
b101111 )
#1020
0!
#1025
1!
#1030
0!
#1035
1!
#1036
b110000 )
#1040
0!
#1045
1!
#1050
0!
#1055
1!
#1056
b110001 )
#1060
0!
#1065
1!
b111 $
#1070
0!
#1075
1!
b0 $
b111 %
#1076
b110010 )
#1080
0!
#1085
1!
b101 #
b1000 %
#1090
0!
#1095
1!
b1 $
b111 %
#1096
b110011 )
#1100
0!
#1105
1!
b110 #
b1000 %
#1110
0!
#1115
1!
#1116
b110100 )
#1120
0!
#1125
1!
#1130
0!
#1135
1!
#1136
b110101 )
#1140
0!
#1145
1!
#1150
0!
#1155
1!
b10 $
b111 %
#1156
b110110 )
#1160
0!
#1165
1!
b111 #
b1000 %
#1170
0!
#1175
1!
#1176
b110111 )
#1180
0!
#1185
1!
#1190
0!
#1195
1!
b11 $
b111 %
#1196
b111000 )
#1200
0!
#1205
1!
#1210
0!
#1215
1!
#1216
b111001 )
#1220
0!
#1225
1!
b0 #
b100 $
#1230
0!
#1235
1!
b1 #
b101 $
#1236
b111010 )
#1240
0!
#1245
1!
b10 #
b110 $
#1250
0!
#1255
1!
#1256
b111011 )
#1260
0!
#1265
1!
#1270
0!
#1275
1!
b11 #
b1000 %
#1276
b111100 )
#1280
0!
#1285
1!
#1290
0!
#1295
1!
#1296
b111101 )
#1300
0!
#1305
1!
b111 $
#1310
0!
#1315
1!
#1316
b111110 )
#1320
0!
#1325
1!
b0 $
#1330
0!
#1335
1!
#1336
b111111 )
#1340
0!
#1345
1!
b1 $
#1350
0!
#1355
1!
b10 $
#1356
b1000000 )
#1360
0!
#1365
1!
b11 $
#1370
0!
#1375
1!
#1376
b1000001 )
#1380
0!
#1385
1!
#1390
0!
#1395
1!
#1396
b1000010 )
#1400
0!
#1405
1!
#1410
0!
#1415
1!
#1416
b1000011 )
#1420
0!
#1425
1!
b100 $
#1430
0!
#1435
1!
#1436
b1000100 )
#1440
0!
#1445
1!
#1450
0!
#1455
1!
b101 $
#1456
b1000101 )
#1460
0!
#1465
1!
#1470
0!
#1475
1!
b110 $
#1476
b1000110 )
#1480
0!
#1485
1!
#1490
0!
#1495
1!
b111 $
#1496
b1000111 )
#1500
0!
#1505
1!
#1510
0!
#1515
1!
#1516
b1001000 )
#1520
0!
#1525
1!
#1530
0!
#1535
1!
b0 $
#1536
b1001001 )
#1540
0!
#1545
1!
#1550
0!
#1555
1!
b1 $
#1556
b1001010 )
#1560
0!
#1565
1!
#1570
0!
#1575
1!
#1576
b1001011 )
#1580
0!
#1585
1!
#1590
0!
#1595
1!
b10 $
b111 %
#1596
b1001100 )
#1600
0!
#1605
1!
b100 #
b1000 %
#1610
0!
#1615
1!
b11 $
#1616
b1001101 )
#1620
0!
#1625
1!
b100 $
#1630
0!
#1635
1!
#1636
b1001110 )
#1640
0!
#1645
1!
b101 $
#1650
0!
#1655
1!
#1656
b1001111 )
#1660
0!
#1665
1!
#1670
0!
#1675
1!
#1676
b1010000 )
#1680
0!
#1685
1!
b110 $
b111 %
#1690
0!
#1695
1!
b101 #
b1000 %
#1696
b1010001 )
#1700
0!
#1705
1!
#1710
0!
#1715
1!
#1716
b1010010 )
#1720
0!
#1725
1!
#1730
0!
#1735
1!
b111 $
#1736
b1010011 )
#1740
0!
#1745
1!
#1750
0!
#1755
1!
b0 $
#1756
b1010100 )
#1760
0!
#1765
1!
#1770
0!
#1775
1!
#1776
b1010101 )
#1780
0!
#1785
1!
#1790
0!
#1795
1!
#1796
b1010110 )
#1800
0!
#1805
1!
#1810
0!
#1815
1!
#1816
b1010111 )
#1820
0!
#1825
1!
b1 $
#1830
0!
#1835
1!
b10 $
#1836
b1011000 )
#1840
0!
#1845
1!
#1850
0!
#1855
1!
#1856
b1011001 )
#1860
0!
#1865
1!
b11 $
b111 %
#1870
0!
#1875
1!
b110 #
b1000 %
#1876
b1011010 )
#1880
0!
#1885
1!
#1890
0!
#1895
1!
b100 $
#1896
b1011011 )
#1900
0!
#1905
1!
#1910
0!
#1915
1!
#1916
b1011100 )
#1920
0!
#1925
1!
b101 $
#1930
0!
#1935
1!
#1936
b1011101 )
#1940
0!
#1945
1!
#1950
0!
#1955
1!
#1956
b1011110 )
#1960
0!
#1965
1!
#1970
0!
#1975
1!
#1976
b1011111 )
#1980
0!
#1985
1!
#1990
0!
#1995
1!
#1996
b1100000 )
