Ver_enviroments/dump.vcd
$date
	Mon Oct 14 19:37:58 2024
$end
$version
	QuestaSim Version 2024.1
$end
$timescale
	1ns
$end

$scope module top_tb $end
$var reg 1 ! clk $end
$var reg 3 " wr_ptr_golden [2:0] $end
$var reg 3 # rd_ptr_golden [2:0] $end
$var reg 4 $ count_golden [3:0] $end
$var reg 16 % data_out_golden [15:0] $end
$var reg 1 & wr_ack_golden $end
$var reg 1 ' overflow_golden $end
$var reg 1 ( full_golden $end
$var reg 1 ) empty_golden $end
$var reg 1 * almostfull_golden $end
$var reg 1 + almostempty_golden $end
$var reg 1 , underflow_golden $end
$var reg 3 - wr_ptr_dut [2:0] $end
$var reg 3 . rd_ptr_dut [2:0] $end
$var reg 4 / count_dut [3:0] $end

$scope module dut $end
$var parameter 32 0 max_fifo_addr $end
$var reg 3 1 wr_ptr [2:0] $end
$var reg 3 2 rd_ptr [2:0] $end
$var reg 4 3 count [3:0] $end
$upscope $end
$upscope $end

$scope begin FIFO_transaction_pkg $end
$upscope $end

$scope begin coverage_pkg $end
$upscope $end

$scope begin test_passed_pkg $end
$var integer 32 4 passed_test_count $end
$var integer 32 5 failed_test_count $end

$scope task increment_passed $end
$upscope $end

$scope task increment_failed $end
$upscope $end

$scope task display_test_results $end
$upscope $end
$upscope $end

$scope begin scb_pkg $end
$upscope $end

$scope begin Fifo_drv_pkg $end
$upscope $end

$scope begin Fifo_mon_pkg $end
$upscope $end

$scope begin env_pkg $end
$upscope $end

$scope begin test_pkg $end
$upscope $end

$scope begin testbench_sv_unit $end
$var parameter 32 6 FIFO_WIDTH $end
$var parameter 32 7 FIFO_DEPTH $end
$var parameter 32 8 max_fifo_addr $end
$upscope $end

$scope begin std $end
$upscope $end
$enddefinitions $end
#0
$dumpvars
0!
bx "
bx #
bx $
bx %
x&
x'
x(
x)
x*
x+
x,
bx -
bx .
bx /
bx 1
bx 2
bx 3
b10000 6
b1000 7
b11 8
b11 0
b0 4
b0 5
$end
#10
1!
#20
0!
#30
1!
#35
b1 4
#40
0!
0&
0'
#50
1!
#55
b10 4
#60
0!
#70
1!
#75
b11 4
#80
0!
#90
1!
#95
b100 4
#100
0!
0,
#110
1!
#115
b101 4
#120
0!
#130
1!
#135
b110 4
#140
0!
b0 1
b0 2
b0 3
#150
1!
b0 -
b0 .
b0 /
#155
b111 4
#160
0!
b0 "
b0 #
b0 $
0(
1)
0*
0+
#170
1!
b1 1
b1 3
#175
b1000 4
#180
0!
b1 "
b1 $
1&
0)
1+
b1 -
b1 /
#190
1!
b10 1
b10 3
#195
b1001 4
#200
0!
b10 "
b10 $
0+
b10 -
b10 /
#210
1!
b11 1
b11 3
#215
b1010 4
#220
0!
b11 "
b11 $
b11 -
b11 /
#230
1!
b100 1
b100 3
#235
b1011 4
#240
0!
b100 "
b100 $
b100 -
b100 /
#250
1!
#255
b1100 4
#260
0!
0&
#270
1!
b1 2
b11 3
#275
b1101 4
#280
0!
b1 #
b11 $
b1110110001110110 %
b1 .
b11 /
#290
1!
b101 1
b10 2
#295
b1110 4
#300
0!
b101 "
b10 #
b1110001011010010 %
1&
b101 -
b10 .
#310
1!
#315
b1111 4
#320
0!
0&
#330
1!
b11 2
b10 3
#335
b10000 4
#340
0!
b11 #
b10 $
b110110011111110 %
b11 .
b10 /
#350
1!
#355
b10001 4
#360
0!
#370
1!
b110 1
b11 3
#375
b10010 4
#380
0!
b110 "
b11 $
1&
b110 -
b11 /
#390
1!
b111 1
b100 2
#395
b10011 4
#400
0!
b111 "
b100 #
b111001110010110 %
b111 -
b100 .
#410
1!
b0 1
b100 3
#415
b10100 4
#420
0!
b0 "
b100 $
b0 -
b100 /
#430
1!
b1 1
b101 2
#435
b10101 4
#440
0!
b1 "
b101 #
b1001000100110001 %
b1 -
b101 .
#450
1!
b10 1
b101 3
#455
b10110 4
#460
0!
b10 "
b101 $
b10 -
b101 /
#470
1!
b11 1
b110 3
#475
b10111 4
#480
0!
b11 "
b110 $
1*
b11 -
b110 /
#490
1!
b100 1
b111 3
#495
b11000 4
#500
0!
b100 "
b111 $
0*
b100 -
b111 /
#510
1!
#515
b11001 4
#520
0!
0&
#530
1!
b101 1
b110 2
#535
b11010 4
#540
0!
b101 "
b110 #
b1000111110111001 %
1&
b101 -
b110 .
#550
1!
#555
b11011 4
#560
0!
0&
b0 1
b0 2
b0 3
#570
1!
b0 -
b0 .
b0 /
#575
b11100 4
#580
0!
b0 "
b0 #
b0 $
1)
1,
#590
1!
#595
b11101 4
#600
0!
0,
#610
1!
b1 1
#615
b11110 4
#620
0!
b1 "
1&
1,
b1 -
#630
1!
#635
b11111 4
#640
0!
0&
#650
1!
b10 1
#655
b100000 4
#660
0!
b10 "
1&
b10 -
#670
1!
b11 1
#675
b100001 4
#680
0!
b11 "
b11 -
#690
1!
b100 1
b1 3
#695
b100010 4
#700
0!
b100 "
b1 $
0)
1+
0,
b100 -
b1 /
b0 1
b0 3
#710
1!
b0 -
b0 /
#715
b100011 4
#720
0!
b0 "
b0 $
0&
1)
0+
#730
1!
#735
b100100 4
#740
0!
#750
1!
b1 1
b1 3
#755
b100101 4
#760
0!
b1 "
b1 $
1&
0)
1+
b1 -
b1 /
#770
1!
b10 1
b10 3
#775
b100110 4
#780
0!
b10 "
b10 $
0+
b10 -
b10 /
#790
1!
b11 1
b11 3
#795
b100111 4
#800
0!
b11 "
b11 $
b11 -
b11 /
#810
1!
b100 1
b100 3
#815
b101000 4
#820
0!
b100 "
b100 $
b100 -
b100 /
#830
1!
#835
b101001 4
#840
0!
0&
#850
1!
b101 1
b101 3
#855
b101010 4
#860
0!
b101 "
b101 $
1&
b101 -
b101 /
#870
1!
#875
b101011 4
#880
0!
0&
#890
1!
b110 1
b110 3
#895
b101100 4
#900
0!
b110 "
b110 $
1&
1*
b110 -
b110 /
#910
1!
b111 1
b111 3
#915
b101101 4
#920
0!
b111 "
b111 $
0*
b111 -
b111 /
#930
1!
b0 1
b1000 3
#935
b101110 4
#940
0!
b0 "
b1000 $
1(
b0 -
b1000 /
#950
1!
#955
b101111 4
#960
0!
0&
1'
#970
1!
#975
b110000 4
#980
0!
0'
#990
1!
b111 3
#995
b110001 4
#1000
0!
b111 $
0(
b111 /
#1010
1!
b1 1
#1015
b110010 4
#1020
0!
b1 "
1&
b1 -
#1030
1!
b10 1
b1 2
#1035
b110011 4
#1040
0!
b10 "
b1 #
b1110001100000011 %
b10 -
b1 .
#1050
1!
b11 1
b10 2
#1055
b110100 4
#1060
0!
b11 "
b10 #
b1111010001101111 %
b11 -
b10 .
#1070
1!
b100 1
b1000 3
#1075
b110101 4
#1080
0!
b100 "
b1000 $
1(
b100 -
b1000 /
#1090
1!
#1095
b110110 4
#1100
0!
0&
#1110
1!
#1115
b110111 4
#1120
0!
1'
#1130
1!
#1135
b111000 4
#1140
0!
#1150
1!
#1155
b111001 4
#1160
0!
0'
#1170
1!
#1175
b111010 4
#1180
0!
1'
#1190
1!
#1195
b111011 4
#1200
0!
#1210
1!
#1215
b111100 4
#1220
0!
#1230
1!
#1235
b111101 4
#1240
0!
b0 1
b0 2
b0 3
#1250
1!
b0 -
b0 .
b0 /
#1255
b111110 4
#1260
0!
b0 "
b0 #
b0 $
0'
0(
1)
1,
#1270
1!
b1 1
b1 3
#1275
b111111 4
#1280
0!
b1 "
b1 $
1&
0)
1+
0,
b1 -
b1 /
#1290
1!
b10 1
b10 3
#1295
b1000000 4
#1300
0!
b10 "
b10 $
0+
b10 -
b10 /
b0 1
b0 3
#1310
1!
b0 -
b0 /
#1315
b1000001 4
#1320
0!
b0 "
b0 $
0&
1)
#1330
1!
#1335
b1000010 4
#1340
0!
#1350
1!
b1 1
b1 3
#1355
b1000011 4
#1360
0!
b1 "
b1 $
1&
0)
1+
b1 -
b1 /
#1370
1!
#1375
b1000100 4
#1380
0!
0&
#1390
1!
#1395
b1000101 4
#1400
0!
#1410
1!
b10 1
b10 3
#1415
b1000110 4
#1420
0!
b10 "
b10 $
1&
0+
b10 -
b10 /
#1430
1!
b11 1
b1 2
#1435
b1000111 4
#1440
0!
b11 "
b1 #
b1110001111110 %
b11 -
b1 .
b0 1
b0 2
b0 3
#1450
1!
b0 -
b0 .
b0 /
#1455
b1001000 4
#1460
0!
b0 "
b0 #
b0 $
0&
1)
#1470
1!
b1 1
#1475
b1001001 4
#1480
0!
b1 "
1&
1,
b1 -
b0 1
#1490
1!
b0 -
#1495
b1001010 4
#1500
0!
b0 "
0&
#1510
1!
b1 1
b1 3
#1515
b1001011 4
#1520
0!
b1 "
b1 $
1&
0)
1+
0,
b1 -
b1 /
b0 1
b0 3
#1530
1!
b0 -
b0 /
#1535
b1001100 4
#1540
0!
b0 "
b0 $
0&
1)
0+
#1550
1!
b1 1
b1 3
#1555
b1001101 4
#1560
0!
b1 "
b1 $
1&
0)
1+
b1 -
b1 /
#1570
1!
#1575
b1001110 4
#1580
0!
0&
b0 1
b0 3
#1590
1!
b0 -
b0 /
#1595
b1001111 4
#1600
0!
b0 "
b0 $
1)
0+
#1610
1!
#1615
b1010000 4
#1620
0!
#1630
1!
b1 1
#1635
b1010001 4
#1640
0!
b1 "
1&
1,
b1 -
b0 1
#1650
1!
b0 -
#1655
b1010010 4
#1660
0!
b0 "
0&
0,
#1670
1!
b1 1
#1675
b1010011 4
#1680
0!
b1 "
1&
1,
b1 -
#1690
1!
b10 1
#1695
b1010100 4
#1700
0!
b10 "
b10 -
#1710
1!
b11 1
#1715
b1010101 4
#1720
0!
b11 "
b11 -
#1730
1!
b100 1
b1 3
#1735
b1010110 4
#1740
0!
b100 "
b1 $
0)
1+
0,
b100 -
b1 /
#1750
1!
b101 1
b10 3
#1755
b1010111 4
#1760
0!
b101 "
b10 $
0+
b101 -
b10 /
b0 1
b0 3
#1770
1!
b0 -
b0 /
#1775
b1011000 4
#1780
0!
b0 "
b0 $
0&
1)
1,
#1790
1!
#1795
b1011001 4
#1800
0!
#1810
1!
#1815
b1011010 4
#1820
0!
#1830
1!
#1835
b1011011 4
#1840
0!
#1850
1!
b1 1
b1 3
#1855
b1011100 4
#1860
0!
b1 "
b1 $
1&
0)
1+
0,
b1 -
b1 /
#1870
1!
b10 1
b10 3
#1875
b1011101 4
#1880
0!
b10 "
b10 $
0+
b10 -
b10 /
#1890
1!
b1 2
b1 3
#1895
b1011110 4
#1900
0!
b1 #
b1 $
b1001100111010010 %
0&
1+
b1 .
b1 /
#1910
1!
b11 1
b10 3
#1915
b1011111 4
#1920
0!
b11 "
b10 $
1&
0+
b11 -
b10 /
#1930
1!
b100 1
b11 3
#1935
b1100000 4
#1940
0!
b100 "
b11 $
b100 -
b11 /
#1950
1!
b101 1
b10 2
#1955
b1100001 4
#1960
0!
b101 "
b10 #
b111110111101010 %
b101 -
b10 .
#1970
1!
b110 1
b100 3
#1975
b1100010 4
#1980
0!
b110 "
b100 $
b110 -
b100 /
#1990
1!
b111 1
b101 3
#1995
b1100011 4
#2000
0!
b111 "
b101 $
b111 -
b101 /
#2010
1!
#2015
b1100100 4
#2020
0!
0&
#2030
1!
b0 1
b110 3
#2035
b1100101 4
#2040
0!
b0 "
b110 $
1&
1*
b0 -
b110 /
#2050
1!
#2055
b1100110 4
#2060
0!
0&
#2070
1!
b1 1
b111 3
#2075
b1100111 4
#2080
0!
b1 "
b111 $
1&
0*
b1 -
b111 /
#2090
1!
b10 1
b1000 3
#2095
b1101000 4
#2100
0!
b10 "
b1000 $
1(
b10 -
b1000 /
#2110
1!
#2115
b1101001 4
#2120
0!
0&
1'
#2130
1!
#2135
b1101010 4
#2140
0!
#2150
1!
#2155
b1101011 4
#2160
0!
b0 1
b0 2
b0 3
#2170
1!
b0 -
b0 .
b0 /
#2175
b1101100 4
#2180
0!
b0 "
b0 #
b0 $
0'
0(
1)
#2190
1!
b1 1
b1 3
#2195
b1101101 4
#2200
0!
b1 "
b1 $
1&
0)
1+
b1 -
b1 /
#2210
1!
#2215
b1101110 4
#2220
0!
0&
#2230
1!
b10 1
b10 3
#2235
b1101111 4
#2240
0!
b10 "
b10 $
1&
0+
b10 -
b10 /
#2250
1!
b11 1
b11 3
#2255
b1110000 4
#2260
0!
b11 "
b11 $
b11 -
b11 /
#2270
1!
b100 1
b100 3
#2275
b1110001 4
#2280
0!
b100 "
b100 $
b100 -
b100 /
#2290
1!
b101 1
b1 2
#2295
b1110010 4
#2300
0!
b101 "
b1 #
b1010110000010001 %
b101 -
b1 .
#2310
1!
#2315
b1110011 4
#2320
0!
0&
#2330
1!
b110 1
b10 2
#2335
b1110100 4
#2340
0!
b110 "
b10 #
b100111011000001 %
1&
b110 -
b10 .
#2350
1!
b111 1
b101 3
#2355
b1110101 4
#2360
0!
b111 "
b101 $
b111 -
b101 /
b0 1
b0 2
b0 3
#2370
1!
b0 -
b0 .
b0 /
#2375
b1110110 4
#2380
0!
b0 "
b0 #
b0 $
0&
1)
#2390
1!
#2395
b1110111 4
#2400
0!
#2410
1!
b1 1
b1 3
#2415
b1111000 4
#2420
0!
b1 "
b1 $
1&
0)
1+
b1 -
b1 /
#2430
1!
b1 2
b0 3
#2435
b1111001 4
#2440
0!
b1 #
b0 $
b10001100000010 %
0&
1)
0+
1,
b1 .
b0 /
#2450
1!
b10 1
b1 3
#2455
b1111010 4
#2460
0!
b10 "
b1 $
1&
0)
1+
0,
b10 -
b1 /
#2470
1!
b11 1
b10 3
#2475
b1111011 4
#2480
0!
b11 "
b10 $
0+
b11 -
b10 /
#2490
1!
b100 1
b11 3
#2495
b1111100 4
#2500
0!
b100 "
b11 $
b100 -
b11 /
#2510
1!
b101 1
b100 3
#2515
b1111101 4
#2520
0!
b101 "
b100 $
b101 -
b100 /
#2530
1!
#2535
b1111110 4
#2540
0!
0&
b0 1
b0 2
b0 3
#2550
1!
b0 -
b0 .
b0 /
#2555
b1111111 4
#2560
0!
b0 "
b0 #
b0 $
1)
1,
#2570
1!
b1 1
#2575
b10000000 4
#2580
0!
b1 "
1&
b1 -
#2590
1!
b10 1
b1 3
#2595
b10000001 4
#2600
0!
b10 "
b1 $
0)
1+
0,
b10 -
b1 /
#2610
1!
#2615
b10000010 4
#2620
0!
0&
#2630
1!
#2635
b10000011 4
#2640
0!
#2650
1!
b11 1
b10 3
#2655
b10000100 4
#2660
0!
b11 "
b10 $
1&
0+
b11 -
b10 /
b0 1
b0 3
#2670
1!
b0 -
b0 /
#2675
b10000101 4
#2680
0!
b0 "
b0 $
0&
1)
#2690
1!
b1 1
b1 3
#2695
b10000110 4
#2700
0!
b1 "
b1 $
1&
0)
1+
b1 -
b1 /
#2710
1!
b10 1
b10 3
#2715
b10000111 4
#2720
0!
b10 "
b10 $
0+
b10 -
b10 /
#2730
1!
b11 1
b11 3
#2735
b10001000 4
#2740
0!
b11 "
b11 $
b11 -
b11 /
#2750
1!
b100 1
b1 2
#2755
b10001001 4
#2760
0!
b100 "
b1 #
b101111111110 %
b100 -
b1 .
#2770
1!
#2775
b10001010 4
#2780
0!
0&
#2790
1!
b101 1
b100 3
#2795
b10001011 4
#2800
0!
b101 "
b100 $
1&
b101 -
b100 /
#2810
1!
b10 2
b11 3
#2815
b10001100 4
#2820
0!
b10 #
b11 $
b111100100100100 %
0&
b10 .
b11 /
#2830
1!
#2835
b10001101 4
#2840
0!
#2850
1!
#2855
b10001110 4
#2860
0!
#2870
1!
#2875
b10001111 4
#2880
0!
#2890
1!
b110 1
b11 2
#2895
b10010000 4
#2900
0!
b110 "
b11 #
b11001111000001 %
1&
b110 -
b11 .
#2910
1!
b111 1
b100 3
#2915
b10010001 4
#2920
0!
b111 "
b100 $
b111 -
b100 /
#2930
1!
b0 1
b101 3
#2935
b10010010 4
#2940
0!
b0 "
b101 $
b0 -
b101 /
#2950
1!
b100 2
b100 3
#2955
b10010011 4
#2960
0!
b100 #
b100 $
b101001111011 %
0&
b100 .
b100 /
#2970
1!
b101 2
b11 3
#2975
b10010100 4
#2980
0!
b101 #
b11 $
b10001110011110 %
b101 .
b11 /
#2990
1!
b1 1
b110 2
#2995
b10010101 4
#3000
0!
b1 "
b110 #
b10101011111000 %
1&
b1 -
b110 .
#3010
1!
b10 1
b100 3
#3015
b10010110 4
#3020
0!
b10 "
b100 $
b10 -
b100 /
#3030
1!
b111 2
b11 3
#3035
b10010111 4
#3040
0!
b111 #
b11 $
b1110110101100000 %
0&
b111 .
b11 /
#3050
1!
b11 1
b100 3
#3055
b10011000 4
#3060
0!
b11 "
b100 $
1&
b11 -
b100 /
#3070
1!
#3075
b10011001 4
#3080
0!
0&
#3090
1!
b100 1
b101 3
#3095
b10011010 4
#3100
0!
b100 "
b101 $
1&
b100 -
b101 /
#3110
1!
b101 1
b110 3
#3115
b10011011 4
#3120
0!
b101 "
b110 $
1*
b101 -
b110 /
#3130
1!
b110 1
b0 2
#3135
b10011100 4
#3140
0!
b110 "
b0 #
b1110110000100111 %
b110 -
b0 .
#3150
1!
#3155
b10011101 4
#3160
0!
0&
#3170
1!
#3175
b10011110 4
#3180
0!
#3190
1!
b111 1
b1 2
#3195
b10011111 4
#3200
0!
b111 "
b1 #
b100000111110 %
1&
b111 -
b1 .
b0 1
b0 2
b0 3
#3210
1!
b0 -
b0 .
b0 /
#3215
b10100000 4
#3220
0!
b0 "
b0 #
b0 $
0&
1)
0*
#3230
1!
b1 1
#3235
b10100001 4
#3240
0!
b1 "
1&
1,
b1 -
#3250
1!
b10 1
b1 3
#3255
b10100010 4
#3260
0!
b10 "
b1 $
0)
1+
0,
b10 -
b1 /
#3270
1!
b11 1
b1 2
#3275
b10100011 4
#3280
0!
b11 "
b1 #
b1011101100011111 %
b11 -
b1 .
#3290
1!
#3295
b10100100 4
#3300
0!
0&
#3310
1!
b100 1
b10 3
#3315
b10100101 4
#3320
0!
b100 "
b10 $
1&
0+
b100 -
b10 /
#3330
1!
b101 1
b11 3
#3335
b10100110 4
#3340
0!
b101 "
b11 $
b101 -
b11 /
#3350
1!
b110 1
b10 2
#3355
b10100111 4
#3360
0!
b110 "
b10 #
b1110111011000000 %
b110 -
b10 .
#3370
1!
b111 1
b100 3
#3375
b10101000 4
#3380
0!
b111 "
b100 $
b111 -
b100 /
#3390
1!
b0 1
b11 2
#3395
b10101001 4
#3400
0!
b0 "
b11 #
b110001001101001 %
b0 -
b11 .
#3410
1!
b1 1
b101 3
#3415
b10101010 4
#3420
0!
b1 "
b101 $
b1 -
b101 /
#3430
1!
b100 2
b100 3
#3435
b10101011 4
#3440
0!
b100 #
b100 $
b101110110101000 %
0&
b100 .
b100 /
#3450
1!
b10 1
b101 2
#3455
b10101100 4
#3460
0!
b10 "
b101 #
b1100011100010001 %
1&
b10 -
b101 .
#3470
1!
b11 1
b110 2
#3475
b10101101 4
#3480
0!
b11 "
b110 #
b11100010000110 %
b11 -
b110 .
#3490
1!
b100 1
b101 3
#3495
b10101110 4
#3500
0!
b100 "
b101 $
b100 -
b101 /
#3510
1!
b111 2
b100 3
#3515
b10101111 4
#3520
0!
b111 #
b100 $
b1010001011000010 %
0&
b111 .
b100 /
#3530
1!
b101 1
b0 2
#3535
b10110000 4
#3540
0!
b101 "
b0 #
b1011100110011000 %
1&
b101 -
b0 .
#3550
1!
b110 1
b1 2
#3555
b10110001 4
#3560
0!
b110 "
b1 #
b10110100100001 %
b110 -
b1 .
#3570
1!
b111 1
b10 2
#3575
b10110010 4
#3580
0!
b111 "
b10 #
b110100010001000 %
b111 -
b10 .
#3590
1!
b0 1
b101 3
#3595
b10110011 4
#3600
0!
b0 "
b101 $
b0 -
b101 /
#3610
1!
b1 1
b110 3
#3615
b10110100 4
#3620
0!
b1 "
b110 $
1*
b1 -
b110 /
b0 1
b0 2
b0 3
#3630
1!
b0 -
b0 .
b0 /
#3635
b10110101 4
#3640
0!
b0 "
b0 #
b0 $
0&
1)
0*
#3650
1!
#3655
b10110110 4
#3660
0!
#3670
1!
b1 1
#3675
b10110111 4
#3680
0!
b1 "
1&
1,
b1 -
#3690
1!
b10 1
b1 3
#3695
b10111000 4
#3700
0!
b10 "
b1 $
0)
1+
0,
b10 -
b1 /
#3710
1!
#3715
b10111001 4
#3720
0!
0&
#3730
1!
b11 1
b10 3
#3735
b10111010 4
#3740
0!
b11 "
b10 $
1&
0+
b11 -
b10 /
#3750
1!
b100 1
b11 3
#3755
b10111011 4
#3760
0!
b100 "
b11 $
b100 -
b11 /
#3770
1!
b1 2
b10 3
#3775
b10111100 4
#3780
0!
b1 #
b10 $
b1001010010110000 %
0&
b1 .
b10 /
#3790
1!
b101 1
b10 2
#3795
b10111101 4
#3800
0!
b101 "
b10 #
b1111100101111010 %
1&
b101 -
b10 .
#3810
1!
b11 2
b1 3
#3815
b10111110 4
#3820
0!
b11 #
b1 $
b100111111001000 %
0&
1+
b11 .
b1 /
#3830
1!
#3835
b10111111 4
#3840
0!
#3850
1!
b110 1
b10 3
#3855
b11000000 4
#3860
0!
b110 "
b10 $
1&
0+
b110 -
b10 /
#3870
1!
#3875
b11000001 4
#3880
0!
0&
#3890
1!
b111 1
b100 2
#3895
b11000010 4
#3900
0!
b111 "
b100 #
b1111101100011101 %
1&
b111 -
b100 .
#3910
1!
b0 1
b11 3
#3915
b11000011 4
#3920
0!
b0 "
b11 $
b0 -
b11 /
#3930
1!
b1 1
b100 3
#3935
b11000100 4
#3940
0!
b1 "
b100 $
b1 -
b100 /
#3950
1!
#3955
b11000101 4
#3960
0!
0&
#3970
1!
b10 1
b101 3
#3975
b11000110 4
#3980
0!
b10 "
b101 $
1&
b10 -
b101 /
#3990
1!
b11 1
b101 2
#3995
b11000111 4
#4000
0!
b11 "
b101 #
b110111001110010 %
b11 -
b101 .
#4010
1!
b100 1
b110 3
#4015
b11001000 4
#4020
0!
b100 "
b110 $
1*
b100 -
b110 /
#4030
1!
b110 2
b101 3
#4035
b11001001 4
#4040
0!
b110 #
b101 $
b1001101100111001 %
0&
0*
b110 .
b101 /
#4050
1!
#4055
b11001010 4
#4060
0!
#4070
1!
#4075
b11001011 4
#4080
0!
#4090
1!
b111 2
b100 3
#4095
b11001100 4
#4100
0!
b111 #
b100 $
b1000100100011000 %
b111 .
b100 /
#4110
1!
b101 1
b101 3
#4115
b11001101 4
#4120
0!
b101 "
b101 $
1&
b101 -
b101 /
#4130
1!
b110 1
b110 3
#4135
b11001110 4
#4140
0!
b110 "
b110 $
1*
b110 -
b110 /
#4150
1!
b111 1
b111 3
#4155
b11001111 4
#4160
0!
b111 "
b111 $
0*
b111 -
b111 /
#4170
1!
b0 1
b1000 3
#4175
b11010000 4
#4180
0!
b0 "
b1000 $
1(
b0 -
b1000 /
#4190
1!
#4195
b11010001 4
#4200
0!
0&
1'
#4210
1!
b0 2
#4215
b11010010 4
#4220
0!
b0 #
b1011111111001001 %
b0 .
b0 3
#4230
1!
b0 /
#4235
b11010011 4
#4240
0!
b0 $
0'
0(
1)
#4250
1!
b1 1
#4255
b11010100 4
#4260
0!
b1 "
1&
1,
b1 -
#4270
1!
b10 1
#4275
b11010101 4
#4280
0!
b10 "
b10 -
b0 1
#4290
1!
b0 -
#4295
b11010110 4
#4300
0!
b0 "
0&
0,
#4310
1!
b1 1
b1 3
#4315
b11010111 4
#4320
0!
b1 "
b1 $
1&
0)
1+
b1 -
b1 /
#4330
1!
#4335
b11011000 4
#4340
0!
0&
b0 1
b0 3
#4350
1!
b0 -
b0 /
#4355
b11011001 4
#4360
0!
b0 "
b0 $
1)
0+
#4370
1!
b1 1
b1 3
#4375
b11011010 4
#4380
0!
b1 "
b1 $
1&
0)
1+
b1 -
b1 /
#4390
1!
b10 1
b10 3
#4395
b11011011 4
#4400
0!
b10 "
b10 $
0+
b10 -
b10 /
#4410
1!
b11 1
b1 2
#4415
b11011100 4
#4420
0!
b11 "
b1 #
b11010110100111 %
b11 -
b1 .
#4430
1!
#4435
b11011101 4
#4440
0!
0&
#4450
1!
b100 1
b11 3
#4455
b11011110 4
#4460
0!
b100 "
b11 $
1&
b100 -
b11 /
b0 1
b0 2
b0 3
#4470
1!
b0 -
b0 .
b0 /
#4475
b11011111 4
#4480
0!
b0 "
b0 #
b0 $
0&
1)
#4490
1!
b1 1
b1 3
#4495
b11100000 4
#4500
0!
b1 "
b1 $
1&
0)
1+
b1 -
b1 /
#4510
1!
b10 1
b1 2
#4515
b11100001 4
#4520
0!
b10 "
b1 #
b1010111110010010 %
b10 -
b1 .
#4530
1!
b11 1
b10 2
#4535
b11100010 4
#4540
0!
b11 "
b10 #
b1011111110100011 %
b11 -
b10 .
#4550
1!
b100 1
b10 3
#4555
b11100011 4
#4560
0!
b100 "
b10 $
0+
b100 -
b10 /
#4570
1!
b11 2
b1 3
#4575
b11100100 4
#4580
0!
b11 #
b1 $
b110001001001 %
0&
1+
b11 .
b1 /
#4590
1!
b101 1
b10 3
#4595
b11100101 4
#4600
0!
b101 "
b10 $
1&
0+
b101 -
b10 /
#4610
1!
b110 1
b11 3
#4615
b11100110 4
#4620
0!
b110 "
b11 $
b110 -
b11 /
b0 1
b0 2
b0 3
#4630
1!
b0 -
b0 .
b0 /
#4635
b11100111 4
#4640
0!
b0 "
b0 #
b0 $
0&
1)
1,
#4650
1!
b1 1
#4655
b11101000 4
#4660
0!
b1 "
1&
b1 -
#4670
1!
b10 1
b1 3
#4675
b11101001 4
#4680
0!
b10 "
b1 $
0)
1+
0,
b10 -
b1 /
#4690
1!
b1 2
b0 3
#4695
b11101010 4
#4700
0!
b1 #
b0 $
b1100110111101010 %
0&
1)
0+
1,
b1 .
b0 /
#4710
1!
#4715
b11101011 4
#4720
0!
0,
#4730
1!
b11 1
#4735
b11101100 4
#4740
0!
b11 "
1&
1,
b11 -
#4750
1!
#4755
b11101101 4
#4760
0!
0&
0,
#4770
1!
b100 1
b1 3
#4775
b11101110 4
#4780
0!
b100 "
b1 $
1&
0)
1+
b100 -
b1 /
#4790
1!
#4795
b11101111 4
#4800
0!
0&
#4810
1!
#4815
b11110000 4
#4820
0!
#4830
1!
b10 2
b0 3
#4835
b11110001 4
#4840
0!
b10 #
b0 $
b100111100010 %
1)
0+
1,
b10 .
b0 /
#4850
1!
#4855
b11110010 4
#4860
0!
0,
#4870
1!
b101 1
#4875
b11110011 4
#4880
0!
b101 "
1&
1,
b101 -
#4890
1!
b110 1
b1 3
#4895
b11110100 4
#4900
0!
b110 "
b1 $
0)
1+
0,
b110 -
b1 /
#4910
1!
b111 1
b10 3
#4915
b11110101 4
#4920
0!
b111 "
b10 $
0+
b111 -
b10 /
#4930
1!
b0 1
b11 3
#4935
b11110110 4
#4940
0!
b0 "
b11 $
b0 -
b11 /
#4950
1!
b1 1
b100 3
#4955
b11110111 4
#4960
0!
b1 "
b100 $
b1 -
b100 /
#4970
1!
#4975
b11111000 4
#4980
0!
0&
#4990
1!
b10 1
b101 3
#4995
b11111001 4
#5000
0!
b10 "
b101 $
1&
b10 -
b101 /
#5010
1!
#5015
b11111010 4
#5020
0!
0&
#5030
1!
b11 1
b110 3
#5035
b11111011 4
#5040
0!
b11 "
b110 $
1&
1*
b11 -
b110 /
b0 1
b0 2
b0 3
#5050
1!
b0 -
b0 .
b0 /
#5055
b11111100 4
#5060
0!
b0 "
b0 #
b0 $
0&
1)
0*
#5070
1!
#5075
b11111101 4
#5080
0!
1,
#5090
1!
b1 1
b1 3
#5095
b11111110 4
#5100
0!
b1 "
b1 $
1&
0)
1+
0,
b1 -
b1 /
#5110
1!
b10 1
b10 3
#5115
b11111111 4
#5120
0!
b10 "
b10 $
0+
b10 -
b10 /
#5130
1!
b11 1
b11 3
#5135
b100000000 4
#5140
0!
b11 "
b11 $
b11 -
b11 /
b0 1
b0 3
#5150
1!
b0 -
b0 /
#5155
b100000001 4
#5160
0!
b0 "
b0 $
0&
1)
#5170
1!
b1 1
b1 3
#5175
b100000010 4
#5180
0!
b1 "
b1 $
1&
0)
1+
b1 -
b1 /
b0 1
b0 3
#5190
1!
b0 -
b0 /
#5195
b100000011 4
#5200
0!
b0 "
b0 $
0&
1)
0+
#5210
1!
b1 1
b1 3
#5215
b100000100 4
#5220
0!
b1 "
b1 $
1&
0)
1+
b1 -
b1 /
#5230
1!
#5235
b100000101 4
#5240
0!
0&
#5250
1!
b10 1
b10 3
#5255
b100000110 4
#5260
0!
b10 "
b10 $
1&
0+
b10 -
b10 /
#5270
1!
#5275
b100000111 4
#5280
0!
0&
#5290
1!
b11 1
b11 3
#5295
b100001000 4
#5300
0!
b11 "
b11 $
1&
b11 -
b11 /
#5310
1!
b100 1
b1 2
#5315
b100001001 4
#5320
0!
b100 "
b1 #
b110101100000010 %
b100 -
b1 .
#5330
1!
b101 1
b100 3
#5335
b100001010 4
#5340
0!
b101 "
b100 $
b101 -
b100 /
#5350
1!
b10 2
b11 3
#5355
b100001011 4
#5360
0!
b10 #
b11 $
b100101101110011 %
0&
b10 .
b11 /
#5370
1!
#5375
b100001100 4
#5380
0!
b0 1
b0 2
b0 3
#5390
1!
b0 -
b0 .
b0 /
#5395
b100001101 4
#5400
0!
b0 "
b0 #
b0 $
1)
#5410
1!
#5415
b100001110 4
#5420
0!
1,
#5430
1!
b1 1
b1 3
#5435
b100001111 4
#5440
0!
b1 "
b1 $
1&
0)
1+
0,
b1 -
b1 /
#5450
1!
b10 1
b10 3
#5455
b100010000 4
#5460
0!
b10 "
b10 $
0+
b10 -
b10 /
#5470
1!
b11 1
b1 2
#5475
b100010001 4
#5480
0!
b11 "
b1 #
b1110110010110100 %
b11 -
b1 .
#5490
1!
b100 1
b11 3
#5495
b100010010 4
#5500
0!
b100 "
b11 $
b100 -
b11 /
#5510
1!
b10 2
b10 3
#5515
b100010011 4
#5520
0!
b10 #
b10 $
b1101010101111110 %
0&
b10 .
b10 /
#5530
1!
b11 2
b1 3
#5535
b100010100 4
